^D:\BV\BV_ABGABE_EBLER_ALBERS\BV_ABGABE_EBLER_ALBERS\DEBUG\BINBV.OBJ|D:\BV\BV_ABGABE_EBLER_ALBERS\BV_ABGABE_EBLER_ALBERS\DEBUG\IMAGE-IO.OBJ|D:\BV\BV_ABGABE_EBLER_ALBERS\BV_ABGABE_EBLER_ALBERS\DEBUG\MAIN.OBJ
/OUT:"D:\BV\BV_ABGABE_EBLER_ALBERS\DEBUG\BV_ABGABE_EBLER_ALBERS.EXE" /INCREMENTAL /NOLOGO KERNEL32.LIB USER32.LIB GDI32.LIB WINSPOOL.LIB COMDLG32.LIB ADVAPI32.LIB SHELL32.LIB OLE32.LIB OLEAUT32.LIB UUID.LIB ODBC32.LIB ODBCCP32.LIB /MANIFEST /MANIFESTUAC:"level='asInvoker' uiAccess='false'" /manifest:embed /DEBUG:FASTLINK /PDB:"D:\BV\BV_ABGABE_EBLER_ALBERS\DEBUG\BV_ABGABE_EBLER_ALBERS.PDB" /TLBID:1 /DYNAMICBASE /NXCOMPAT /IMPLIB:"D:\BV\BV_ABGABE_EBLER_ALBERS\DEBUG\BV_ABGABE_EBLER_ALBERS.LIB" /MACHINE:X86 DEBUG\BINBV.OBJ"DEBUG\IMAGE-IO.OBJ"DEBUG\MAIN.OBJ
^D:\BV\BV_ABGABE_EBLER_ALBERS_TEST\BV_ABGABE_EBLER_ALBERS\DEBUG\BINBV.OBJ|D:\BV\BV_ABGABE_EBLER_ALBERS_TEST\BV_ABGABE_EBLER_ALBERS\DEBUG\IMAGE-IO.OBJ|D:\BV\BV_ABGABE_EBLER_ALBERS_TEST\BV_ABGABE_EBLER_ALBERS\DEBUG\MAIN.OBJ
/OUT:"D:\BV\BV_ABGABE_EBLER_ALBERS_TEST\DEBUG\BV_ABGABE_EBLER_ALBERS.EXE" /INCREMENTAL /NOLOGO KERNEL32.LIB USER32.LIB GDI32.LIB WINSPOOL.LIB COMDLG32.LIB ADVAPI32.LIB SHELL32.LIB OLE32.LIB OLEAUT32.LIB UUID.LIB ODBC32.LIB ODBCCP32.LIB /MANIFEST /MANIFESTUAC:"level='asInvoker' uiAccess='false'" /manifest:embed /DEBUG:FASTLINK /PDB:"D:\BV\BV_ABGABE_EBLER_ALBERS_TEST\DEBUG\BV_ABGABE_EBLER_ALBERS.PDB" /TLBID:1 /DYNAMICBASE /NXCOMPAT /IMPLIB:"D:\BV\BV_ABGABE_EBLER_ALBERS_TEST\DEBUG\BV_ABGABE_EBLER_ALBERS.LIB" /MACHINE:X86 DEBUG\BINBV.OBJ"DEBUG\IMAGE-IO.OBJ"DEBUG\MAIN.OBJ
^D:\BV\BV_ABGABE_EBLER_ALBERS_AUFGABE2\BV_ABGABE_EBLER_ALBERS\DEBUG\BINBV.OBJ|D:\BV\BV_ABGABE_EBLER_ALBERS_AUFGABE2\BV_ABGABE_EBLER_ALBERS\DEBUG\IMAGE-IO.OBJ|D:\BV\BV_ABGABE_EBLER_ALBERS_AUFGABE2\BV_ABGABE_EBLER_ALBERS\DEBUG\MAIN.OBJ
/OUT:"D:\BV\BV_ABGABE_EBLER_ALBERS_AUFGABE2\DEBUG\BV_ABGABE_EBLER_ALBERS.EXE" /INCREMENTAL /NOLOGO KERNEL32.LIB USER32.LIB GDI32.LIB WINSPOOL.LIB COMDLG32.LIB ADVAPI32.LIB SHELL32.LIB OLE32.LIB OLEAUT32.LIB UUID.LIB ODBC32.LIB ODBCCP32.LIB /MANIFEST /MANIFESTUAC:"level='asInvoker' uiAccess='false'" /manifest:embed /DEBUG:FASTLINK /PDB:"D:\BV\BV_ABGABE_EBLER_ALBERS_AUFGABE2\DEBUG\BV_ABGABE_EBLER_ALBERS.PDB" /TLBID:1 /DYNAMICBASE /NXCOMPAT /IMPLIB:"D:\BV\BV_ABGABE_EBLER_ALBERS_AUFGABE2\DEBUG\BV_ABGABE_EBLER_ALBERS.LIB" /MACHINE:X86 DEBUG\BINBV.OBJ"DEBUG\IMAGE-IO.OBJ"DEBUG\MAIN.OBJ
^D:\BV\BV_ABGABE_EBLER_ALBERS_AUFGABE3\BV_ABGABE_EBLER_ALBERS\DEBUG\BINBV.OBJ|D:\BV\BV_ABGABE_EBLER_ALBERS_AUFGABE3\BV_ABGABE_EBLER_ALBERS\DEBUG\IMAGE-IO.OBJ|D:\BV\BV_ABGABE_EBLER_ALBERS_AUFGABE3\BV_ABGABE_EBLER_ALBERS\DEBUG\MAIN.OBJ|D:\BV\BV_ABGABE_EBLER_ALBERS_AUFGABE3\BV_ABGABE_EBLER_ALBERS\DEBUG\PRE_PROCESSING.OBJ
/OUT:"D:\BV\BV_ABGABE_EBLER_ALBERS_AUFGABE3\DEBUG\BV_ABGABE_EBLER_ALBERS.EXE" /INCREMENTAL /NOLOGO KERNEL32.LIB USER32.LIB GDI32.LIB WINSPOOL.LIB COMDLG32.LIB ADVAPI32.LIB SHELL32.LIB OLE32.LIB OLEAUT32.LIB UUID.LIB ODBC32.LIB ODBCCP32.LIB /MANIFEST /MANIFESTUAC:"level='asInvoker' uiAccess='false'" /manifest:embed /DEBUG:FASTLINK /PDB:"D:\BV\BV_ABGABE_EBLER_ALBERS_AUFGABE3\DEBUG\BV_ABGABE_EBLER_ALBERS.PDB" /TLBID:1 /DYNAMICBASE /NXCOMPAT /IMPLIB:"D:\BV\BV_ABGABE_EBLER_ALBERS_AUFGABE3\DEBUG\BV_ABGABE_EBLER_ALBERS.LIB" /MACHINE:X86 DEBUG\BINBV.OBJ"DEBUG\IMAGE-IO.OBJ"DEBUG\MAIN.OBJDEBUG\PRE_PROCESSING.OBJ
